<?xml version="1.0" encoding="utf-8"?>
<!-- Generator: Adobe Illustrator 24.3.0, SVG Export Plug-In . SVG Version: 6.00 Build 0)  -->
<svg version="1.1" id="Capa_1" xmlns="http://www.w3.org/2000/svg" xmlns:xlink="http://www.w3.org/1999/xlink" x="0px" y="0px"
	 viewBox="0 0 30 17" style="enable-background:new 0 0 30 17;" xml:space="preserve">
<style type="text/css">
	.st0{fill:#FFFFFF;}
</style>
<g id="surface33">
	<path class="st0" d="M29,0.2l-6.9,7.5L15,0L7.9,7.7L1,0.2H0.2v16.5H1l6.9-7.5L15,17l7.1-7.7l6.9,7.5h0.8V0.2H29z M1.3,14.9V2.1
		l5.9,6.4L1.3,14.9z M15,15.4L9.1,9h11.8L15,15.4z M9.1,8L15,1.6L20.9,8H9.1z M28.7,14.9l-5.9-6.4l5.9-6.4V14.9z"/>
</g>
</svg>
