<?xml version="1.0" encoding="utf-8"?>
<!-- Generator: Adobe Illustrator 24.3.0, SVG Export Plug-In . SVG Version: 6.00 Build 0)  -->
<svg version="1.1" id="Capa_1" xmlns="http://www.w3.org/2000/svg" xmlns:xlink="http://www.w3.org/1999/xlink" x="0px" y="0px"
	 viewBox="0 0 22.9 8.6" style="enable-background:new 0 0 22.9 8.6;" xml:space="preserve">
<style type="text/css">
	.st0{fill:#335FD9;}
</style>
<polygon class="st0" points="5.9,0 4.4,3.6 22.9,3.6 22.9,5 4.4,5 5.8,8.6 4.9,8.6 0,4.5 0,4 4.8,0 "/>
</svg>
