<?xml version="1.0" encoding="utf-8"?>
<!-- Generator: Adobe Illustrator 24.1.1, SVG Export Plug-In . SVG Version: 6.00 Build 0)  -->
<svg version="1.1" id="Capa_1" xmlns="http://www.w3.org/2000/svg" xmlns:xlink="http://www.w3.org/1999/xlink" x="0px" y="0px"
	 viewBox="0 0 21.52 17.22" style="enable-background:new 0 0 21.52 17.22;" xml:space="preserve">
<style type="text/css">
	.st0{fill:#3D5EA8;}
</style>
<polygon class="st0" points="0,0 10.76,17.22 21.52,0 "/>
</svg>
