<?xml version="1.0" encoding="utf-8"?>
<!-- Generator: Adobe Illustrator 24.1.1, SVG Export Plug-In . SVG Version: 6.00 Build 0)  -->
<svg version="1.1" id="Capa_1" xmlns="http://www.w3.org/2000/svg" xmlns:xlink="http://www.w3.org/1999/xlink" x="0px" y="0px"
	 viewBox="0 0 27 27" style="enable-background:new 0 0 27 27;" xml:space="preserve">
<style type="text/css">
	.st0{fill:#FFFFFF;}
	.st1{fill:none;stroke:#FFFFFF;stroke-miterlimit:10;}
</style>
<g>
	<path class="st0" d="M13.55,10.07c-1.84,0-3.33,1.49-3.33,3.33s1.49,3.33,3.33,3.33c1.84,0,3.33-1.49,3.33-3.33
		S15.4,10.07,13.55,10.07z M13.55,15.57c-1.19,0-2.17-0.97-2.17-2.17s0.97-2.17,2.17-2.17c1.19,0,2.17,0.97,2.17,2.17
		S14.74,15.57,13.55,15.57L13.55,15.57z M17.8,9.93c0,0.43-0.35,0.78-0.78,0.78s-0.78-0.35-0.78-0.78s0.35-0.78,0.78-0.78
		S17.8,9.5,17.8,9.93z M20,10.72C19.95,9.68,19.71,8.76,18.95,8s-1.68-1-2.72-1.05c-1.07-0.06-4.29-0.06-5.36,0
		C9.83,7,8.91,7.24,8.15,8s-1,1.68-1.05,2.72c-0.06,1.07-0.06,4.29,0,5.36c0.05,1.04,0.29,1.96,1.05,2.72
		c0.76,0.76,1.68,1,2.72,1.05c1.07,0.06,4.29,0.06,5.36,0c1.04-0.05,1.96-0.29,2.72-1.05c0.76-0.76,1-1.68,1.05-2.72
		C20.07,15.01,20.07,11.79,20,10.72L20,10.72z M18.62,17.23c-0.23,0.57-0.66,1.01-1.24,1.24c-0.86,0.34-2.89,0.26-3.83,0.26
		c-0.95,0-2.98,0.08-3.83-0.26c-0.57-0.23-1.01-0.66-1.24-1.24c-0.34-0.86-0.26-2.89-0.26-3.83s-0.08-2.98,0.26-3.83
		C8.71,9,9.14,8.56,9.72,8.33c0.86-0.34,2.89-0.26,3.83-0.26c0.95,0,2.98-0.08,3.83,0.26c0.57,0.23,1.01,0.66,1.24,1.24
		c0.34,0.86,0.26,2.89,0.26,3.83S18.96,16.38,18.62,17.23z"/>
	<circle class="st1" cx="13.5" cy="13.5" r="13"/>
</g>
</svg>
